3.6787e+01,3.5007e+01,2.7161e+01,2.5849e+01,1.4845e+01,1.3808e+01,1.0451e+01,1.0929e+01,5.6113e+00,2.2177e+00
3.2705e+01,3.4695e+01,2.5777e+01,2.4864e+01,1.3668e+01,1.3155e+01,1.0572e+01,1.0382e+01,6.1922e+00,2.2700e+00
3.5303e+01,3.1267e+01,2.7113e+01,2.3483e+01,1.4582e+01,1.2659e+01,1.0918e+01,9.8732e+00,6.1488e+00,1.9137e+00
3.4879e+01,3.2046e+01,2.7231e+01,2.4186e+01,1.6190e+01,1.3341e+01,1.1133e+01,9.8931e+00,6.0492e+00,1.6411e+00
3.5212e+01,3.3622e+01,2.8209e+01,2.3620e+01,1.6775e+01,1.3876e+01,9.4231e+00,1.0476e+01,5.8143e+00,1.7543e+00
3.6376e+01,3.4583e+01,2.8395e+01,2.3110e+01,1.4889e+01,1.2630e+01,1.0722e+01,1.1187e+01,5.6750e+00,1.8053e+00
3.2472e+01,3.2060e+01,2.5165e+01,2.6815e+01,1.6952e+01,1.3722e+01,1.0963e+01,9.3971e+00,6.0181e+00,1.7938e+00
3.2766e+01,3.2854e+01,2.8719e+01,2.5829e+01,1.5642e+01,1.2998e+01,9.5773e+00,8.8878e+00,6.1036e+00,1.7617e+00
3.1637e+01,3.2429e+01,2.8726e+01,2.5401e+01,1.5433e+01,1.3742e+01,1.0364e+01,9.4801e+00,5.6795e+00,2.1835e+00
3.5376e+01,3.4621e+01,2.4694e+01,2.5948e+01,1.4301e+01,1.2456e+01,1.0397e+01,9.9553e+00,6.0060e+00,1.9962e+00
3.5892e+01,3.5428e+01,2.6260e+01,2.4335e+01,1.7323e+01,1.3892e+01,1.0887e+01,8.9886e+00,5.8415e+00,2.2903e+00
3.4151e+01,3.2841e+01,2.8140e+01,2.4779e+01,1.4872e+01,1.3925e+01,9.7563e+00,9.6839e+00,6.3556e+00,2.0690e+00
3.1952e+01,3.5437e+01,2.5035e+01,2.4623e+01,1.6129e+01,1.3237e+01,1.0253e+01,9.7654e+00,6.0721e+00,1.9387e+00
3.4868e+01,3.3363e+01,2.6226e+01,2.4801e+01,1.5684e+01,1.4500e+01,1.1662e+01,9.3829e+00,6.0399e+00,1.9624e+00
3.2282e+01,3.5851e+01,2.8664e+01,2.5139e+01,1.5076e+01,1.4074e+01,1.0450e+01,9.8472e+00,5.9487e+00,2.2515e+00
3.4157e+01,3.3573e+01,2.4825e+01,2.3841e+01,1.4523e+01,1.3139e+01,9.6300e+00,1.0797e+01,5.8270e+00,2.3240e+00
3.1941e+01,3.1256e+01,2.6526e+01,2.6158e+01,1.6080e+01,1.2951e+01,9.1901e+00,1.0737e+01,6.1710e+00,2.5719e+00
3.2738e+01,3.4712e+01,2.8020e+01,2.5026e+01,1.4504e+01,1.2781e+01,1.1201e+01,9.5805e+00,6.3305e+00,1.8930e+00
3.1763e+01,3.5022e+01,2.7381e+01,2.4133e+01,1.5827e+01,1.3047e+01,1.1076e+01,9.8309e+00,5.7567e+00,2.3714e+00
3.2616e+01,3.4760e+01,2.4978e+01,2.6982e+01,1.5994e+01,1.4365e+01,1.0069e+01,1.1502e+01,6.1909e+00,1.6222e+00
3.2391e+01,3.4501e+01,2.8612e+01,2.5964e+01,1.4690e+01,1.3477e+01,1.0590e+01,8.8852e+00,6.2690e+00,2.0389e+00
3.2110e+01,3.4221e+01,2.6537e+01,2.6932e+01,1.7025e+01,1.4494e+01,9.9332e+00,9.6866e+00,6.1127e+00,2.2864e+00
3.0092e+01,3.4340e+01,2.7439e+01,2.4341e+01,1.6374e+01,1.3674e+01,1.0595e+01,9.2915e+00,6.1511e+00,2.1030e+00
2.9406e+01,3.0973e+01,2.7431e+01,2.6912e+01,1.7708e+01,1.4080e+01,1.0507e+01,1.1431e+01,5.9914e+00,2.1735e+00
3.4705e+01,3.1259e+01,2.7404e+01,2.5502e+01,1.5770e+01,1.3629e+01,1.1525e+01,9.3242e+00,6.1121e+00,2.4848e+00
3.4741e+01,3.2431e+01,2.6005e+01,2.6680e+01,1.5469e+01,1.4606e+01,1.0957e+01,8.6363e+00,6.3187e+00,1.9603e+00
3.6567e+01,3.1075e+01,2.9034e+01,2.5316e+01,1.5397e+01,1.2480e+01,1.1285e+01,1.0155e+01,6.0441e+00,2.2693e+00
3.3376e+01,3.4299e+01,2.7885e+01,2.7199e+01,1.6252e+01,1.3880e+01,9.5969e+00,9.7765e+00,6.0035e+00,2.3279e+00
3.3438e+01,3.2484e+01,2.9381e+01,2.6574e+01,1.4044e+01,1.4586e+01,1.1179e+01,9.8536e+00,5.7027e+00,2.2313e+00
3.1440e+01,3.4529e+01,2.6891e+01,2.5471e+01,1.6459e+01,1.3083e+01,1.0800e+01,1.0286e+01,6.0474e+00,1.8064e+00
3.4128e+01,3.0531e+01,2.7658e+01,2.5704e+01,1.5811e+01,1.3101e+01,9.9249e+00,1.1443e+01,5.6793e+00,2.0081e+00
3.5556e+01,3.0345e+01,2.6737e+01,2.3910e+01,1.5591e+01,1.2365e+01,1.1522e+01,9.1442e+00,5.7843e+00,2.0920e+00
3.2152e+01,3.5124e+01,2.7717e+01,2.4409e+01,1.5802e+01,1.4127e+01,9.8754e+00,1.0370e+01,5.8882e+00,2.2787e+00
3.1877e+01,2.9940e+01,2.6687e+01,2.6217e+01,1.5168e+01,1.2998e+01,1.1625e+01,9.6548e+00,5.6786e+00,1.8684e+00
3.1754e+01,3.5512e+01,2.6901e+01,2.6129e+01,1.4972e+01,1.2803e+01,1.0767e+01,1.1514e+01,6.2892e+00,1.9751e+00
3.0726e+01,3.3423e+01,2.4833e+01,2.6295e+01,1.6760e+01,1.2884e+01,1.0322e+01,1.1118e+01,5.9907e+00,2.1994e+00
3.3173e+01,3.0557e+01,2.7325e+01,2.5576e+01,1.6275e+01,1.3956e+01,1.0420e+01,9.1131e+00,5.9028e+00,2.1171e+00
3.5416e+01,3.4371e+01,2.7567e+01,2.4475e+01,1.6059e+01,1.2786e+01,9.5930e+00,1.0533e+01,6.2821e+00,1.7811e+00
3.0791e+01,3.4244e+01,2.4962e+01,2.4878e+01,1.6961e+01,1.3297e+01,9.8636e+00,1.0438e+01,6.1750e+00,2.1233e+00
3.5435e+01,2.9795e+01,2.4948e+01,2.2482e+01,1.3924e+01,1.2760e+01,1.0637e+01,1.1290e+01,6.4441e+00,2.5983e+00
3.6887e+01,3.2246e+01,2.7988e+01,2.6636e+01,1.5847e+01,1.2802e+01,1.1525e+01,9.4776e+00,5.9310e+00,1.9726e+00
3.4601e+01,3.2602e+01,2.5159e+01,2.6000e+01,1.5159e+01,1.3313e+01,1.0607e+01,9.3789e+00,6.1603e+00,2.2921e+00
3.4511e+01,3.2045e+01,2.4288e+01,2.3931e+01,1.3189e+01,1.4074e+01,1.1075e+01,1.0840e+01,5.9169e+00,2.4252e+00
3.4594e+01,3.2368e+01,2.8626e+01,2.4790e+01,1.4400e+01,1.4137e+01,1.0914e+01,9.4328e+00,5.7892e+00,1.6132e+00
3.4524e+01,3.2989e+01,2.5869e+01,2.3908e+01,1.4177e+01,1.4076e+01,1.0237e+01,9.3000e+00,5.8371e+00,2.0469e+00
3.4811e+01,3.2554e+01,2.4185e+01,2.5356e+01,1.6504e+01,1.3272e+01,1.0068e+01,1.0777e+01,5.8180e+00,2.4504e+00
3.3416e+01,3.0186e+01,2.5349e+01,2.5263e+01,1.5597e+01,1.3025e+01,1.0701e+01,8.8193e+00,5.8866e+00,2.3499e+00
3.1757e+01,3.4964e+01,2.5396e+01,2.5254e+01,1.4494e+01,1.3295e+01,9.9810e+00,1.0215e+01,6.1521e+00,1.8423e+00
3.5049e+01,3.4567e+01,2.5714e+01,2.5853e+01,1.4807e+01,1.4083e+01,9.6050e+00,1.0332e+01,5.9337e+00,2.0758e+00
3.5262e+01,3.1649e+01,2.6439e+01,2.5080e+01,1.5903e+01,1.4793e+01,1.0334e+01,8.1663e+00,5.6651e+00,2.1567e+00
