<?xml version="1.0"?>
<!DOCTYPE svg PUBLIC '-//W3C//DTD SVG 1.0//EN'
          'http://www.w3.org/TR/2001/REC-SVG-20010904/DTD/svg10.dtd'>
<svg xmlns:xlink="http://www.w3.org/1999/xlink" style="fill-opacity:1; color-rendering:auto; color-interpolation:auto; text-rendering:auto; stroke:black; stroke-linecap:square; stroke-miterlimit:10; shape-rendering:auto; stroke-opacity:1; fill:black; stroke-dasharray:none; font-weight:normal; stroke-width:1; font-family:'Dialog'; font-style:normal; stroke-linejoin:miter; font-size:12px; stroke-dashoffset:0; image-rendering:auto;" width="560" height="560" xmlns="http://www.w3.org/2000/svg"
><!--Generated by the Batik Graphics2D SVG Generator--><defs id="genericDefs"
  /><g
  ><defs id="defs1"
    ><clipPath clipPathUnits="userSpaceOnUse" id="clipPath1"
      ><path d="M0 0 L560 0 L560 560 L0 560 L0 0 Z"
      /></clipPath
      ><font horiz-adv-x="60.009766" id="font1"
      ><font-face ascent="92.822266" descent="23.583984" units-per-em="100" style="font-style:normal; font-family:SansSerif; font-weight:normal;"
        /><missing-glyph horiz-adv-x="60.009766" d="M4.9844 -17.6719 L4.9844 70.5156 L54.9844 70.5156 L54.9844 -17.6719 L4.9844 -17.6719 ZM10.5938 -12.1094 L49.4219 -12.1094 L49.4219 64.8906 L10.5938 64.8906 L10.5938 -12.1094 Z"
        /><glyph unicode="0" horiz-adv-x="63.623047" d="M31.7812 66.4062 Q24.1719 66.4062 20.3359 58.9141 Q16.5 51.4219 16.5 36.375 Q16.5 21.3906 20.3359 13.8906 Q24.1719 6.3906 31.7812 6.3906 Q39.4531 6.3906 43.2891 13.8906 Q47.125 21.3906 47.125 36.375 Q47.125 51.4219 43.2891 58.9141 Q39.4531 66.4062 31.7812 66.4062 ZM31.7812 74.2188 Q44.0469 74.2188 50.5156 64.5234 Q56.9844 54.8281 56.9844 36.375 Q56.9844 17.9688 50.5156 8.2734 Q44.0469 -1.4219 31.7812 -1.4219 Q19.5312 -1.4219 13.0625 8.2734 Q6.5938 17.9688 6.5938 36.375 Q6.5938 54.8281 13.0625 64.5234 Q19.5312 74.2188 31.7812 74.2188 Z"
        /><glyph unicode="1" horiz-adv-x="63.623047" d="M12.4062 8.2969 L28.5156 8.2969 L28.5156 63.9219 L10.9844 60.4062 L10.9844 69.3906 L28.4219 72.9062 L38.2812 72.9062 L38.2812 8.2969 L54.3906 8.2969 L54.3906 0 L12.4062 0 L12.4062 8.2969 Z"
        /><glyph unicode="4" horiz-adv-x="63.623047" d="M37.7969 64.3125 L12.8906 25.3906 L37.7969 25.3906 L37.7969 64.3125 ZM35.2031 72.9062 L47.6094 72.9062 L47.6094 25.3906 L58.0156 25.3906 L58.0156 17.1875 L47.6094 17.1875 L47.6094 0 L37.7969 0 L37.7969 17.1875 L4.8906 17.1875 L4.8906 26.7031 L35.2031 72.9062 Z"
        /><glyph unicode="8" horiz-adv-x="63.623047" d="M31.7812 34.625 Q24.75 34.625 20.7266 30.8594 Q16.7031 27.0938 16.7031 20.5156 Q16.7031 13.9219 20.7266 10.1562 Q24.75 6.3906 31.7812 6.3906 Q38.8125 6.3906 42.8672 10.1797 Q46.9219 13.9688 46.9219 20.5156 Q46.9219 27.0938 42.8984 30.8594 Q38.875 34.625 31.7812 34.625 ZM21.9219 38.8125 Q15.5781 40.375 12.0391 44.7266 Q8.5 49.0781 8.5 55.3281 Q8.5 64.0625 14.7266 69.1406 Q20.9531 74.2188 31.7812 74.2188 Q42.6719 74.2188 48.875 69.1406 Q55.0781 64.0625 55.0781 55.3281 Q55.0781 49.0781 51.5391 44.7266 Q48 40.375 41.7031 38.8125 Q48.8281 37.1562 52.8047 32.3203 Q56.7812 27.4844 56.7812 20.5156 Q56.7812 9.9062 50.3125 4.2422 Q43.8438 -1.4219 31.7812 -1.4219 Q19.7344 -1.4219 13.2578 4.2422 Q6.7812 9.9062 6.7812 20.5156 Q6.7812 27.4844 10.7891 32.3203 Q14.7969 37.1562 21.9219 38.8125 ZM18.3125 54.3906 Q18.3125 48.7344 21.8516 45.5625 Q25.3906 42.3906 31.7812 42.3906 Q38.1406 42.3906 41.7266 45.5625 Q45.3125 48.7344 45.3125 54.3906 Q45.3125 60.0625 41.7266 63.2344 Q38.1406 66.4062 31.7812 66.4062 Q25.3906 66.4062 21.8516 63.2344 Q18.3125 60.0625 18.3125 54.3906 Z"
      /></font
      ><font horiz-adv-x="60.009766" id="font2"
      ><font-face ascent="92.822266" descent="23.583984" units-per-em="100" style="font-style:normal; font-family:SansSerif; font-weight:bold;"
        /><missing-glyph horiz-adv-x="60.009766" d="M4.9844 -17.6719 L4.9844 70.5156 L54.9844 70.5156 L54.9844 -17.6719 L4.9844 -17.6719 ZM10.5938 -12.1094 L49.4219 -12.1094 L49.4219 64.8906 L10.5938 64.8906 L10.5938 -12.1094 Z"
        /><glyph unicode="%" horiz-adv-x="100.19531" d="M77.4844 30.0781 Q74.0312 30.0781 72.125 27.0781 Q70.2188 24.0781 70.2188 18.5 Q70.2188 12.8906 72.0938 9.8906 Q73.9688 6.8906 77.4844 6.8906 Q81 6.8906 82.8594 9.8906 Q84.7188 12.8906 84.7188 18.5 Q84.7188 24.0781 82.8359 27.0781 Q80.9531 30.0781 77.4844 30.0781 ZM77.4844 38.2812 Q86.5781 38.2812 91.7969 33.0078 Q97.0156 27.7344 97.0156 18.5 Q97.0156 9.2812 91.7969 3.9297 Q86.5781 -1.4219 77.4844 -1.4219 Q68.4062 -1.4219 63.1562 3.9297 Q57.9062 9.2812 57.9062 18.5 Q57.9062 27.6875 63.1562 32.9844 Q68.4062 38.2812 77.4844 38.2812 ZM32.7188 -1.4219 L21.9219 -1.4219 L67.4844 74.2188 L78.3281 74.2188 L32.7188 -1.4219 ZM22.7031 74.2188 Q31.7812 74.2188 36.9844 68.9219 Q42.1875 63.625 42.1875 54.3906 Q42.1875 45.1719 36.9844 39.8438 Q31.7812 34.5156 22.7031 34.5156 Q13.625 34.5156 8.4219 39.8438 Q3.2188 45.1719 3.2188 54.3906 Q3.2188 63.625 8.4219 68.9219 Q13.625 74.2188 22.7031 74.2188 ZM22.7031 66.0156 Q19.1875 66.0156 17.2812 62.9922 Q15.375 59.9688 15.375 54.3906 Q15.375 48.7812 17.2812 45.7266 Q19.1875 42.6719 22.7031 42.6719 Q26.2188 42.6719 28.1016 45.7266 Q29.9844 48.7812 29.9844 54.3906 Q29.9844 59.9688 28.0781 62.9922 Q26.1719 66.0156 22.7031 66.0156 Z"
        /><glyph unicode="8" horiz-adv-x="69.58008" d="M34.8125 32.625 Q29.5469 32.625 26.7109 29.7422 Q23.875 26.8594 23.875 21.4844 Q23.875 16.1094 26.7109 13.2578 Q29.5469 10.4062 34.8125 10.4062 Q40.0469 10.4062 42.8281 13.2578 Q45.6094 16.1094 45.6094 21.4844 Q45.6094 26.9062 42.8281 29.7656 Q40.0469 32.625 34.8125 32.625 ZM21.0938 38.8125 Q14.4531 40.8281 11.0859 44.9766 Q7.7188 49.125 7.7188 55.3281 Q7.7188 64.5469 14.6016 69.3828 Q21.4844 74.2188 34.8125 74.2188 Q48.0469 74.2188 54.9297 69.4062 Q61.8125 64.5938 61.8125 55.3281 Q61.8125 49.125 58.4219 44.9766 Q55.0312 40.8281 48.3906 38.8125 Q55.8125 36.7656 59.5938 32.1562 Q63.375 27.5469 63.375 20.5156 Q63.375 9.6719 56.1719 4.125 Q48.9688 -1.4219 34.8125 -1.4219 Q20.6094 -1.4219 13.3594 4.125 Q6.1094 9.6719 6.1094 20.5156 Q6.1094 27.5469 9.8906 32.1562 Q13.6719 36.7656 21.0938 38.8125 ZM25.4844 53.4219 Q25.4844 49.0781 27.9062 46.7344 Q30.3281 44.3906 34.8125 44.3906 Q39.2031 44.3906 41.6016 46.7344 Q44 49.0781 44 53.4219 Q44 57.7656 41.6016 60.0859 Q39.2031 62.4062 34.8125 62.4062 Q30.3281 62.4062 27.9062 60.0625 Q25.4844 57.7188 25.4844 53.4219 Z"
        /><glyph unicode=":" horiz-adv-x="39.990234" d="M11.1875 54.6875 L28.8125 54.6875 L28.8125 35.7969 L11.1875 35.7969 L11.1875 54.6875 ZM11.1875 18.8906 L28.8125 18.8906 L28.8125 0 L11.1875 0 L11.1875 18.8906 Z"
        /><glyph unicode="y" horiz-adv-x="65.18555" d="M1.2188 54.6875 L18.7031 54.6875 L33.4062 17.5781 L45.9062 54.6875 L63.375 54.6875 L40.375 -5.1719 Q36.9219 -14.3125 32.3047 -17.9453 Q27.6875 -21.5781 20.125 -21.5781 L10.0156 -21.5781 L10.0156 -10.1094 L15.4844 -10.1094 Q19.9219 -10.1094 21.9453 -8.6953 Q23.9688 -7.2812 25.0938 -3.6094 L25.5938 -2.0938 L1.2188 54.6875 Z"
        /><glyph unicode="r" horiz-adv-x="49.316406" d="M49.0312 39.7969 Q46.7344 40.875 44.4609 41.3828 Q42.1875 41.8906 39.8906 41.8906 Q33.1562 41.8906 29.5156 37.5703 Q25.875 33.25 25.875 25.2031 L25.875 0 L8.4062 0 L8.4062 54.6875 L25.875 54.6875 L25.875 45.7031 Q29.25 51.0781 33.6172 53.5391 Q37.9844 56 44.0938 56 Q44.9688 56 45.9922 55.9297 Q47.0156 55.8594 48.9688 55.6094 L49.0312 39.7969 Z"
        /><glyph unicode="u" horiz-adv-x="71.19141" d="M7.8125 21.2969 L7.8125 54.6875 L25.3906 54.6875 L25.3906 49.2188 Q25.3906 44.7812 25.3438 38.0625 Q25.2969 31.3438 25.2969 29.1094 Q25.2969 22.5156 25.6406 19.6094 Q25.9844 16.7031 26.8125 15.375 Q27.875 13.6719 29.6094 12.7422 Q31.3438 11.8125 33.5938 11.8125 Q39.0625 11.8125 42.1875 16.0156 Q45.3125 20.2188 45.3125 27.6875 L45.3125 54.6875 L62.7969 54.6875 L62.7969 0 L45.3125 0 L45.3125 7.9062 Q41.3594 3.125 36.9375 0.8516 Q32.5156 -1.4219 27.2031 -1.4219 Q17.7188 -1.4219 12.7656 4.3906 Q7.8125 10.2031 7.8125 21.2969 Z"
        /><glyph unicode="c" horiz-adv-x="59.277344" d="M52.5938 52.9844 L52.5938 38.7188 Q49.0312 41.1562 45.4375 42.3281 Q41.8438 43.5 37.9844 43.5 Q30.6719 43.5 26.5938 39.2344 Q22.5156 34.9688 22.5156 27.2969 Q22.5156 19.625 26.5938 15.3516 Q30.6719 11.0781 37.9844 11.0781 Q42.0938 11.0781 45.7812 12.3047 Q49.4688 13.5312 52.5938 15.9219 L52.5938 1.6094 Q48.4844 0.0938 44.2656 -0.6641 Q40.0469 -1.4219 35.7969 -1.4219 Q21 -1.4219 12.6484 6.1719 Q4.2969 13.7656 4.2969 27.2969 Q4.2969 40.8281 12.6484 48.4141 Q21 56 35.7969 56 Q40.0938 56 44.2656 55.25 Q48.4375 54.5 52.5938 52.9844 Z"
        /><glyph unicode="0" horiz-adv-x="69.58008" d="M46 36.5312 Q46 50.2031 43.4375 55.7891 Q40.875 61.375 34.8125 61.375 Q28.7656 61.375 26.1719 55.7891 Q23.5781 50.2031 23.5781 36.5312 Q23.5781 22.7031 26.1719 17.0391 Q28.7656 11.375 34.8125 11.375 Q40.8281 11.375 43.4141 17.0391 Q46 22.7031 46 36.5312 ZM64.7969 36.375 Q64.7969 18.2656 56.9844 8.4219 Q49.1719 -1.4219 34.8125 -1.4219 Q20.4062 -1.4219 12.5938 8.4219 Q4.7812 18.2656 4.7812 36.375 Q4.7812 54.5469 12.5938 64.3828 Q20.4062 74.2188 34.8125 74.2188 Q49.1719 74.2188 56.9844 64.3828 Q64.7969 54.5469 64.7969 36.375 Z"
        /><glyph unicode=" " horiz-adv-x="34.814453" d=""
        /><glyph unicode="e" horiz-adv-x="67.822266" d="M62.9844 27.4844 L62.9844 22.5156 L22.125 22.5156 Q22.75 16.3594 26.5625 13.2812 Q30.375 10.2031 37.2031 10.2031 Q42.7188 10.2031 48.5078 11.8438 Q54.2969 13.4844 60.4062 16.7969 L60.4062 3.3281 Q54.2031 0.9844 48 -0.2188 Q41.7969 -1.4219 35.5938 -1.4219 Q20.75 -1.4219 12.5234 6.125 Q4.2969 13.6719 4.2969 27.2969 Q4.2969 40.6719 12.375 48.3359 Q20.4531 56 34.625 56 Q47.5156 56 55.25 48.2422 Q62.9844 40.4844 62.9844 27.4844 ZM45.0156 33.2969 Q45.0156 38.2812 42.1094 41.3359 Q39.2031 44.3906 34.5156 44.3906 Q29.4375 44.3906 26.2656 41.5312 Q23.0938 38.6719 22.3125 33.2969 L45.0156 33.2969 Z"
        /><glyph unicode="b" horiz-adv-x="71.58203" d="M37.5 11.2812 Q43.1094 11.2812 46.0703 15.3828 Q49.0312 19.4844 49.0312 27.2969 Q49.0312 35.1094 46.0703 39.2109 Q43.1094 43.3125 37.5 43.3125 Q31.8906 43.3125 28.8828 39.1875 Q25.875 35.0625 25.875 27.2969 Q25.875 19.5312 28.8828 15.4062 Q31.8906 11.2812 37.5 11.2812 ZM25.875 46.6875 Q29.5 51.4688 33.8906 53.7344 Q38.2812 56 44 56 Q54.1094 56 60.6016 47.9688 Q67.0938 39.9375 67.0938 27.2969 Q67.0938 14.6562 60.6016 6.6172 Q54.1094 -1.4219 44 -1.4219 Q38.2812 -1.4219 33.8906 0.8516 Q29.5 3.125 25.875 7.9062 L25.875 0 L8.4062 0 L8.4062 75.9844 L25.875 75.9844 L25.875 46.6875 Z"
        /><glyph unicode="a" horiz-adv-x="67.48047" d="M32.9062 24.6094 Q27.4375 24.6094 24.6797 22.7578 Q21.9219 20.9062 21.9219 17.2812 Q21.9219 13.9688 24.1484 12.0859 Q26.375 10.2031 30.3281 10.2031 Q35.25 10.2031 38.625 13.7422 Q42 17.2812 42 22.6094 L42 24.6094 L32.9062 24.6094 ZM59.625 31.2031 L59.625 0 L42 0 L42 8.1094 Q38.4844 3.125 34.0859 0.8516 Q29.6875 -1.4219 23.3906 -1.4219 Q14.8906 -1.4219 9.5938 3.5391 Q4.2969 8.5 4.2969 16.4062 Q4.2969 26.0312 10.9141 30.5234 Q17.5312 35.0156 31.6875 35.0156 L42 35.0156 L42 36.375 Q42 40.5312 38.7266 42.4609 Q35.4531 44.3906 28.5156 44.3906 Q22.9062 44.3906 18.0703 43.2656 Q13.2344 42.1406 9.0781 39.8906 L9.0781 53.2188 Q14.7031 54.5938 20.3672 55.2969 Q26.0312 56 31.6875 56 Q46.4844 56 53.0547 50.1719 Q59.625 44.3438 59.625 31.2031 Z"
        /><glyph unicode="l" horiz-adv-x="34.277344" d="M8.4062 75.9844 L25.875 75.9844 L25.875 0 L8.4062 0 L8.4062 75.9844 Z"
        /><glyph unicode="9" horiz-adv-x="69.58008" d="M10.0156 1.6094 L10.0156 15.0938 Q14.5 12.9844 18.6016 11.9375 Q22.7031 10.8906 26.7031 10.8906 Q35.1094 10.8906 39.7969 15.5547 Q44.4844 20.2188 45.3125 29.3906 Q42 26.9531 38.2344 25.7344 Q34.4688 24.5156 30.0781 24.5156 Q18.8906 24.5156 12.0312 31.0312 Q5.1719 37.5469 5.1719 48.1875 Q5.1719 59.9688 12.8125 67.0469 Q20.4531 74.125 33.2969 74.125 Q47.5625 74.125 55.375 64.5078 Q63.1875 54.8906 63.1875 37.3125 Q63.1875 19.2344 54.0547 8.9062 Q44.9219 -1.4219 29 -1.4219 Q23.875 -1.4219 19.1875 -0.6641 Q14.5 0.0938 10.0156 1.6094 ZM33.2031 36.7188 Q38.1406 36.7188 40.625 39.9141 Q43.1094 43.1094 43.1094 49.5156 Q43.1094 55.8594 40.625 59.0859 Q38.1406 62.3125 33.2031 62.3125 Q28.2656 62.3125 25.7812 59.0859 Q23.2969 55.8594 23.2969 49.5156 Q23.2969 43.1094 25.7812 39.9141 Q28.2656 36.7188 33.2031 36.7188 Z"
        /><glyph unicode="1" horiz-adv-x="69.58008" d="M11.7188 12.9844 L28.3281 12.9844 L28.3281 60.1094 L11.2812 56.5938 L11.2812 69.3906 L28.2188 72.9062 L46.0938 72.9062 L46.0938 12.9844 L62.7031 12.9844 L62.7031 0 L11.7188 0 L11.7188 12.9844 Z"
      /></font
    ></defs
    ><g style="fill:white; stroke:white;"
    ><rect x="0" y="0" width="560" style="clip-path:url(#clipPath1); stroke:none;" height="560"
    /></g
    ><g style="fill:white; text-rendering:optimizeSpeed; color-rendering:optimizeSpeed; image-rendering:optimizeSpeed; shape-rendering:crispEdges; stroke:white; color-interpolation:sRGB;"
    ><rect x="0" width="560" height="560" y="0" style="stroke:none;"
      /><path style="stroke:none;" d="M73 498 L507 498 L507 42 L73 42 Z"
    /></g
    ><g style="stroke-linecap:butt; fill-opacity:0.149; fill:rgb(38,38,38); text-rendering:geometricPrecision; image-rendering:optimizeQuality; color-rendering:optimizeQuality; stroke-linejoin:round; stroke:rgb(38,38,38); color-interpolation:linearRGB; stroke-width:0.5; stroke-opacity:0.149;"
    ><line y2="42" style="fill:none;" x1="181.5" x2="181.5" y1="498"
      /><line y2="42" style="fill:none;" x1="398.5" x2="398.5" y1="498"
      /><line y2="315.6" style="fill:none;" x1="507" x2="73" y1="315.6"
      /><line y2="133.2" style="fill:none;" x1="507" x2="73" y1="133.2"
      /><line x1="73" x2="507" y1="498" style="stroke-linecap:square; fill-opacity:1; fill:none; stroke-opacity:1;" y2="498"
      /><line x1="73" x2="507" y1="42" style="stroke-linecap:square; fill-opacity:1; fill:none; stroke-opacity:1;" y2="42"
      /><line x1="181.5" x2="181.5" y1="498" style="stroke-linecap:square; fill-opacity:1; fill:none; stroke-opacity:1;" y2="493.44"
      /><line x1="398.5" x2="398.5" y1="498" style="stroke-linecap:square; fill-opacity:1; fill:none; stroke-opacity:1;" y2="493.44"
      /><line x1="181.5" x2="181.5" y1="42" style="stroke-linecap:square; fill-opacity:1; fill:none; stroke-opacity:1;" y2="46.56"
      /><line x1="398.5" x2="398.5" y1="42" style="stroke-linecap:square; fill-opacity:1; fill:none; stroke-opacity:1;" y2="46.56"
    /></g
    ><g transform="translate(181.5,502)" style="font-size:10px; fill:rgb(38,38,38); text-rendering:geometricPrecision; image-rendering:optimizeQuality; color-rendering:optimizeQuality; font-family:'SansSerif'; stroke:rgb(38,38,38); color-interpolation:linearRGB;"
    ><text x="-3.5" xml:space="preserve" y="10" style="stroke:none;"
      >0</text
    ></g
    ><g transform="translate(398.5,502)" style="font-size:10px; fill:rgb(38,38,38); text-rendering:geometricPrecision; image-rendering:optimizeQuality; color-rendering:optimizeQuality; font-family:'SansSerif'; stroke:rgb(38,38,38); color-interpolation:linearRGB;"
    ><text x="-3.5" xml:space="preserve" y="10" style="stroke:none;"
      >1</text
    ></g
    ><g style="fill:rgb(38,38,38); text-rendering:geometricPrecision; image-rendering:optimizeQuality; color-rendering:optimizeQuality; stroke-linejoin:round; stroke:rgb(38,38,38); color-interpolation:linearRGB; stroke-width:0.5;"
    ><line y2="42" style="fill:none;" x1="73" x2="73" y1="498"
      /><line y2="42" style="fill:none;" x1="507" x2="507" y1="498"
      /><line y2="315.6" style="fill:none;" x1="73" x2="77.56" y1="315.6"
      /><line y2="133.2" style="fill:none;" x1="73" x2="77.56" y1="133.2"
      /><line y2="315.6" style="fill:none;" x1="507" x2="502.44" y1="315.6"
      /><line y2="133.2" style="fill:none;" x1="507" x2="502.44" y1="133.2"
    /></g
    ><g transform="translate(69,315.6)" style="font-size:10px; fill:rgb(38,38,38); text-rendering:geometricPrecision; image-rendering:optimizeQuality; color-rendering:optimizeQuality; font-family:'SansSerif'; stroke:rgb(38,38,38); color-interpolation:linearRGB;"
    ><text x="-13" xml:space="preserve" y="3.5" style="stroke:none;"
      >40</text
    ></g
    ><g transform="translate(69,133.2)" style="font-size:10px; fill:rgb(38,38,38); text-rendering:geometricPrecision; image-rendering:optimizeQuality; color-rendering:optimizeQuality; font-family:'SansSerif'; stroke:rgb(38,38,38); color-interpolation:linearRGB;"
    ><text x="-13" xml:space="preserve" y="3.5" style="stroke:none;"
      >80</text
    ></g
    ><g transform="translate(290.0002,39.25)" style="font-size:11px; text-rendering:geometricPrecision; image-rendering:optimizeQuality; color-rendering:optimizeQuality; font-family:'SansSerif'; color-interpolation:linearRGB; font-weight:bold;"
    ><text x="-71.5" xml:space="preserve" y="-17" style="stroke:none;"
      >label 0 accuracy : 80 %</text
      ><text x="-71.5" xml:space="preserve" y="-3" style="stroke:none;"
      >label 1 accuracy : 98 %</text
    ></g
    ><g transform="translate(181.5,302.0386)" style="stroke-linecap:butt; fill:blue; text-rendering:geometricPrecision; color-rendering:optimizeQuality; image-rendering:optimizeQuality; color-interpolation:linearRGB; stroke:blue;"
    ><circle r="3" style="fill:none;" cx="0" cy="0"
      /><circle r="3" style="fill:none;" cx="0" transform="translate(0,2.6676)" cy="0"
      /><circle r="3" style="fill:none;" cx="0" transform="translate(0,33.5251)" cy="0"
      /><circle r="3" style="fill:none;" cx="0" transform="translate(0,36.4435)" cy="0"
      /><circle r="3" style="fill:none;" cx="0" transform="translate(0,27.7385)" cy="0"
      /><circle r="3" style="fill:none;" cx="0" transform="translate(0,32.0841)" cy="0"
      /><circle r="3" style="fill:none;" cx="0" transform="translate(0,3.2741)" cy="0"
      /><circle r="3" style="fill:none;" cx="0" transform="translate(0,29.0928)" cy="0"
      /><circle r="3" style="fill:none;" cx="0" transform="translate(0,-41.423)" cy="0"
      /><circle r="3" style="fill:none;" cx="0" transform="translate(0,18.5364)" cy="0"
      /><circle r="3" style="fill:none;" cx="0" transform="translate(0,25.1256)" cy="0"
      /><circle r="3" style="fill:none;" cx="0" transform="translate(0,5.5085)" cy="0"
      /><circle r="3" style="fill:none;" cx="0" transform="translate(0,-6.2883)" cy="0"
      /><circle r="3" style="fill:none;" cx="0" transform="translate(0,27.7476)" cy="0"
      /><circle r="3" style="fill:none;" cx="0" transform="translate(0,31.6236)" cy="0"
      /><circle r="3" style="fill:none;" cx="0" transform="translate(0,4.1952)" cy="0"
      /><circle r="3" style="fill:none;" cx="0" transform="translate(0,14.9933)" cy="0"
      /><circle r="3" style="fill:none;" cx="0" transform="translate(0,26.0695)" cy="0"
      /><circle r="3" style="fill:none;" cx="0" transform="translate(0,23.1693)" cy="0"
      /><circle r="3" style="fill:none;" cx="0" transform="translate(0,21.3682)" cy="0"
      /><circle r="3" style="fill:none;" cx="0" transform="translate(0,-18.9651)" cy="0"
      /><circle r="3" style="fill:none;" cx="0" transform="translate(0,55.8417)" cy="0"
      /><circle r="3" style="fill:none;" cx="0" transform="translate(0,47.5061)" cy="0"
      /><circle r="3" style="fill:none;" cx="0" transform="translate(0,30.7435)" cy="0"
      /><circle r="3" style="fill:none;" cx="0" transform="translate(0,46.0697)" cy="0"
      /><circle r="3" style="fill:none;" cx="0" transform="translate(0,35.1165)" cy="0"
      /><circle r="3" style="fill:none;" cx="0" transform="translate(0,36.6168)" cy="0"
      /><circle r="3" style="fill:none;" cx="0" transform="translate(0,43.9174)" cy="0"
      /><circle r="3" style="fill:none;" cx="0" transform="translate(0,16.5938)" cy="0"
      /><circle r="3" style="fill:none;" cx="0" transform="translate(0,26.8903)" cy="0"
      /><circle r="3" style="fill:none;" cx="0" transform="translate(0,33.1512)" cy="0"
      /><circle r="3" style="fill:none;" cx="0" transform="translate(0,35.0345)" cy="0"
      /><circle r="3" style="fill:none;" cx="0" transform="translate(0,28.9058)" cy="0"
      /><circle r="3" style="fill:none;" cx="0" transform="translate(0,31.1494)" cy="0"
      /><circle r="3" style="fill:none;" cx="0" transform="translate(0,52.6224)" cy="0"
      /><circle r="3" style="fill:none;" cx="0" transform="translate(0,38.0532)" cy="0"
      /><circle r="3" style="fill:none;" cx="0" transform="translate(0,28.7964)" cy="0"
      /><circle r="3" style="fill:none;" cx="0" transform="translate(0,43.4568)" cy="0"
      /><circle r="3" style="fill:none;" cx="0" transform="translate(0,34.925)" cy="0"
      /><circle r="3" style="fill:none;" cx="0" transform="translate(0,27.8661)" cy="0"
      /><circle r="3" style="fill:none;" cx="0" transform="translate(0,7.0133)" cy="0"
      /><circle r="3" style="fill:none;" cx="0" transform="translate(0,-11.9335)" cy="0"
      /><circle r="3" style="fill:none;" cx="0" transform="translate(0,31.692)" cy="0"
      /><circle r="3" style="fill:none;" cx="0" transform="translate(0,41.268)" cy="0"
      /><circle r="3" style="fill:none;" cx="0" transform="translate(0,26.3887)" cy="0"
      /><circle r="3" style="fill:none;" cx="0" transform="translate(0,33.0053)" cy="0"
      /><circle r="3" style="fill:none;" cx="0" transform="translate(0,31.1585)" cy="0"
      /><circle r="3" style="fill:none;" cx="0" transform="translate(0,49.175)" cy="0"
      /><circle r="3" style="fill:none;" cx="0" transform="translate(0,19.3435)" cy="0"
      /><circle r="3" style="fill:none;" cx="0" transform="translate(0,17.8752)" cy="0"
      /><circle transform="translate(217,-6.8218)" style="fill:none; stroke:red;" r="3" cx="0" cy="0"
      /><circle transform="translate(217,-48.9379)" style="fill:none; stroke:red;" r="3" cx="0" cy="0"
      /><circle transform="translate(217,-31.3591)" style="fill:none; stroke:red;" r="3" cx="0" cy="0"
      /><circle transform="translate(217,-26.8402)" style="fill:none; stroke:red;" r="3" cx="0" cy="0"
      /><circle transform="translate(217,-34.5466)" style="fill:none; stroke:red;" r="3" cx="0" cy="0"
      /><circle transform="translate(217,-29.4759)" style="fill:none; stroke:red;" r="3" cx="0" cy="0"
      /><circle transform="translate(217,-59.1615)" style="fill:none; stroke:red;" r="3" cx="0" cy="0"
      /><circle transform="translate(217,6.1879)" style="fill:none; stroke:red;" r="3" cx="0" cy="0"
      /><circle transform="translate(217,-12.9869)" style="fill:none; stroke:red;" r="3" cx="0" cy="0"
      /><circle transform="translate(217,7.2094)" style="fill:none; stroke:red;" r="3" cx="0" cy="0"
      /><circle transform="translate(217,-29.8361)" style="fill:none; stroke:red;" r="3" cx="0" cy="0"
      /><circle transform="translate(217,-17.1274)" style="fill:none; stroke:red;" r="3" cx="0" cy="0"
      /><circle transform="translate(217,-80.9126)" style="fill:none; stroke:red;" r="3" cx="0" cy="0"
      /><circle transform="translate(217,-100.5799)" style="fill:none; stroke:red;" r="3" cx="0" cy="0"
      /><circle transform="translate(217,1.0807)" style="fill:none; stroke:red;" r="3" cx="0" cy="0"
      /><circle transform="translate(217,-52.668)" style="fill:none; stroke:red;" r="3" cx="0" cy="0"
      /><circle transform="translate(217,-138.4051)" style="fill:none; stroke:red;" r="3" cx="0" cy="0"
      /><circle transform="translate(217,-14.2865)" style="fill:none; stroke:red;" r="3" cx="0" cy="0"
      /><circle transform="translate(217,-118.1724)" style="fill:none; stroke:red;" r="3" cx="0" cy="0"
      /><circle transform="translate(217,8.705)" style="fill:none; stroke:red;" r="3" cx="0" cy="0"
      /><circle transform="translate(217,-34.0632)" style="fill:none; stroke:red;" r="3" cx="0" cy="0"
      /><circle transform="translate(217,-10.8939)" style="fill:none; stroke:red;" r="3" cx="0" cy="0"
      /><circle transform="translate(217,-3.8213)" style="fill:none; stroke:red;" r="3" cx="0" cy="0"
      /><circle transform="translate(217,-29.0655)" style="fill:none; stroke:red;" r="3" cx="0" cy="0"
      /><circle transform="translate(217,-92.9602)" style="fill:none; stroke:red;" r="3" cx="0" cy="0"
      /><circle transform="translate(217,-98.6647)" style="fill:none; stroke:red;" r="3" cx="0" cy="0"
      /><circle transform="translate(217,-61.0219)" style="fill:none; stroke:red;" r="3" cx="0" cy="0"
      /><circle transform="translate(217,-38.7646)" style="fill:none; stroke:red;" r="3" cx="0" cy="0"
      /><circle transform="translate(217,-8.8966)" style="fill:none; stroke:red;" r="3" cx="0" cy="0"
      /><circle transform="translate(217,-2.0018)" style="fill:none; stroke:red;" r="3" cx="0" cy="0"
      /><circle transform="translate(217,-12.2573)" style="fill:none; stroke:red;" r="3" cx="0" cy="0"
      /><circle transform="translate(217,6.7123)" style="fill:none; stroke:red;" r="3" cx="0" cy="0"
      /><circle transform="translate(217,17.1547)" style="fill:none; stroke:red;" r="3" cx="0" cy="0"
      /><circle transform="translate(217,-46.3159)" style="fill:none; stroke:red;" r="3" cx="0" cy="0"
      /><circle transform="translate(217,-44.7382)" style="fill:none; stroke:red;" r="3" cx="0" cy="0"
      /><circle transform="translate(217,-8.3995)" style="fill:none; stroke:red;" r="3" cx="0" cy="0"
      /><circle transform="translate(217,-75.5501)" style="fill:none; stroke:red;" r="3" cx="0" cy="0"
      /><circle transform="translate(217,-43.6848)" style="fill:none; stroke:red;" r="3" cx="0" cy="0"
      /><circle transform="translate(217,-38.0122)" style="fill:none; stroke:red;" r="3" cx="0" cy="0"
      /><circle transform="translate(217,-92.0892)" style="fill:none; stroke:red;" r="3" cx="0" cy="0"
      /><circle transform="translate(217,-40.8896)" style="fill:none; stroke:red;" r="3" cx="0" cy="0"
      /><circle transform="translate(217,-21.9108)" style="fill:none; stroke:red;" r="3" cx="0" cy="0"
      /><circle transform="translate(217,-19.3527)" style="fill:none; stroke:red;" r="3" cx="0" cy="0"
      /><circle transform="translate(217,-49.9275)" style="fill:none; stroke:red;" r="3" cx="0" cy="0"
      /><circle transform="translate(217,-36.5803)" style="fill:none; stroke:red;" r="3" cx="0" cy="0"
      /><circle transform="translate(217,-60.4656)" style="fill:none; stroke:red;" r="3" cx="0" cy="0"
      /><circle transform="translate(217,-52.4081)" style="fill:none; stroke:red;" r="3" cx="0" cy="0"
      /><circle transform="translate(217,-33.9401)" style="fill:none; stroke:red;" r="3" cx="0" cy="0"
      /><circle transform="translate(217,-22.7362)" style="fill:none; stroke:red;" r="3" cx="0" cy="0"
      /><circle transform="translate(217,-11.4274)" style="fill:none; stroke:red;" r="3" cx="0" cy="0"
    /></g
  ></g
></svg
>
